simulation/qsim/PBL2.msim.vcd
$comment
	File created using the following command:
		vcd file PBL2.msim.vcd -direction
$end
$date
	Tue Oct 04 22:46:10 2022
$end
$version
	ModelSim Version 2020.1
$end
$timescale
	1ps
$end

$scope module sistema_vlg_vec_tst $end
$var reg 8 ! CH [7:0] $end
$var reg 1 " CLK $end
$var wire 1 # S1 $end
$var wire 1 $ S2 $end
$var wire 1 % d [3] $end
$var wire 1 & d [2] $end
$var wire 1 ' d [1] $end
$var wire 1 ( d [0] $end
$var wire 1 ) n [7] $end
$var wire 1 * n [6] $end
$var wire 1 + n [5] $end
$var wire 1 , n [4] $end
$var wire 1 - n [3] $end
$var wire 1 . n [2] $end
$var wire 1 / n [1] $end
$var wire 1 0 n [0] $end
$var wire 1 1 p $end

$scope module i1 $end
$var wire 1 2 gnd $end
$var wire 1 3 vcc $end
$var wire 1 4 unknown $end
$var tri1 1 5 devclrn $end
$var tri1 1 6 devpor $end
$var tri1 1 7 devoe $end
$var wire 1 8 CLK~combout $end
$var wire 1 9 div_freq|FF_JK1|Q~regout $end
$var wire 1 : div_freq|FF_JK2|Q~regout $end
$var wire 1 ; Decoder0~0_combout $end
$var wire 1 < Decoder0~1_combout $end
$var wire 1 = Decoder0~2_combout $end
$var wire 1 > Decoder0~3_combout $end
$var wire 1 ? som_vagas_O|somador3|s1b1|Xor0~combout $end
$var wire 1 @ som_vagas_O|somador4|s1b1|Xor0~combout $end
$var wire 1 A som_vagas_O|somador7|s1b1|Or0~0_combout $end
$var wire 1 B som_vagas_O|somador3|s1b2|Xor1~combout $end
$var wire 1 C som_vagas_O|somador5|s1b2|Xor1~combout $end
$var wire 1 D som_vagas_O|somador6|s1b1|Or0~0_combout $end
$var wire 1 E som_vagas_O|somador7|s1b2|Xor1~combout $end
$var wire 1 F som_vagas_L|somador7|s1b1|Xor0~combout $end
$var wire 1 G som_vagas_O|somador3|s1b3|Xor1~0_combout $end
$var wire 1 H som_vagas_O|somador5|s1b3|Xor1~0_combout $end
$var wire 1 I som_vagas_O|somador5|s1b3|Xor1~1_combout $end
$var wire 1 J som_vagas_O|somador7|s1b3|Xor1~combout $end
$var wire 1 K som_vagas_O|somador7|s1b4|Xor1~combout $end
$var wire 1 L deco_d7s_O|WideOr5~0_combout $end
$var wire 1 M som_vagas_L|somador6|s1b1|And0~0_combout $end
$var wire 1 N som_vagas_L|somador7|s1b1|And0~combout $end
$var wire 1 O som_vagas_L|somador3|s1b2|Xor1~combout $end
$var wire 1 P som_vagas_L|somador5|s1b2|Xor1~combout $end
$var wire 1 Q som_vagas_L|somador7|s1b2|Xor1~combout $end
$var wire 1 R som_vagas_L|somador4|s1b3|Xor1~0_combout $end
$var wire 1 S som_vagas_L|somador5|s1b3|Xor1~0_combout $end
$var wire 1 T som_vagas_L|somador5|s1b3|Xor1~1_combout $end
$var wire 1 U som_vagas_L|somador7|s1b3|Xor1~combout $end
$var wire 1 V som_vagas_L|somador7|s1b4|Xor1~combout $end
$var wire 1 W deco_d7s_L|WideOr5~0_combout $end
$var wire 1 X Mux7~0_combout $end
$var wire 1 Y deco_d7s_O|WideOr4~0_combout $end
$var wire 1 Z deco_d7s_L|WideOr4~0_combout $end
$var wire 1 [ Mux6~0_combout $end
$var wire 1 \ deco_d7s_L|d~0_combout $end
$var wire 1 ] deco_d7s_O|d~0_combout $end
$var wire 1 ^ Mux5~0_combout $end
$var wire 1 _ deco_d7s_L|WideOr3~0_combout $end
$var wire 1 ` deco_d7s_O|WideOr3~0_combout $end
$var wire 1 a Mux4~0_combout $end
$var wire 1 b deco_d7s_O|WideOr2~0_combout $end
$var wire 1 c deco_d7s_L|WideOr2~0_combout $end
$var wire 1 d Mux3~0_combout $end
$var wire 1 e deco_d7s_L|WideOr1~0_combout $end
$var wire 1 f deco_d7s_O|WideOr1~0_combout $end
$var wire 1 g Mux2~0_combout $end
$var wire 1 h deco_d7s_L|WideOr0~0_combout $end
$var wire 1 i deco_d7s_O|WideOr0~0_combout $end
$var wire 1 j Mux1~0_combout $end
$var wire 1 k CH~combout [7] $end
$var wire 1 l CH~combout [6] $end
$var wire 1 m CH~combout [5] $end
$var wire 1 n CH~combout [4] $end
$var wire 1 o CH~combout [3] $end
$var wire 1 p CH~combout [2] $end
$var wire 1 q CH~combout [1] $end
$var wire 1 r CH~combout [0] $end
$upscope $end
$upscope $end
$enddefinitions $end
#0
$dumpvars
b0 !
0"
0#
0$
1(
1'
1&
0%
00
1/
1.
1-
0,
0+
0*
0)
11
02
13
x4
15
16
17
08
09
0:
0;
0<
0=
0>
0?
0@
0A
0B
0C
0D
0E
0F
0G
0H
0I
0J
0K
0L
0M
0N
0O
0P
0Q
0R
0S
0T
0U
0V
0W
0X
0Y
0Z
1[
0\
0]
1^
0_
0`
1a
0b
0c
0d
0e
0f
0g
0h
0i
0j
0r
0q
0p
0o
0n
0m
0l
0k
$end
#10000
1"
18
#20000
0"
08
19
0a
0^
0[
1>
1=
1#
0-
0.
0/
1%
0&
#30000
1"
18
#40000
0"
08
09
1a
1^
1[
0>
0=
0#
1-
1.
1/
0%
1&
1:
0a
0^
0[
1X
1>
1<
1$
0-
0.
0/
10
1%
1)
0'
#50000
1"
18
#60000
0"
08
19
1g
1d
1a
1^
1[
0<
1;
1#
1+
1,
1-
1.
1/
0)
0(
1'
#70000
1"
18
#80000
0"
08
09
0g
0d
0a
0^
0[
1<
0;
0#
0+
0,
0-
0.
0/
1)
1(
0'
0:
1a
1^
1[
0X
0>
0<
0$
1-
1.
1/
00
0%
0)
1'
#90000
1"
18
#100000
0"
08
19
0a
0^
0[
1>
1=
1#
0-
0.
0/
1%
0&
#110000
1"
18
#120000
0"
08
09
1a
1^
1[
0>
0=
0#
1-
1.
1/
0%
1&
1:
0a
0^
0[
1X
1>
1<
1$
0-
0.
0/
10
1%
1)
0'
#130000
1"
18
#140000
0"
08
19
1g
1d
1a
1^
1[
0<
1;
1#
1+
1,
1-
1.
1/
0)
0(
1'
#150000
1"
18
#160000
0"
08
09
0g
0d
0a
0^
0[
1<
0;
0#
0+
0,
0-
0.
0/
1)
1(
0'
0:
1a
1^
1[
0X
0>
0<
0$
1-
1.
1/
00
0%
0)
1'
#170000
1"
18
#180000
0"
08
19
0a
0^
0[
1>
1=
1#
0-
0.
0/
1%
0&
#190000
1"
18
#200000
0"
08
09
1a
1^
1[
0>
0=
0#
1-
1.
1/
0%
1&
1:
0a
0^
0[
1X
1>
1<
1$
0-
0.
0/
10
1%
1)
0'
#210000
1"
18
#220000
0"
08
19
1g
1d
1a
1^
1[
0<
1;
1#
1+
1,
1-
1.
1/
0)
0(
1'
#230000
1"
18
#240000
0"
08
09
0g
0d
0a
0^
0[
1<
0;
0#
0+
0,
0-
0.
0/
1)
1(
0'
0:
1a
1^
1[
0X
0>
0<
0$
1-
1.
1/
00
0%
0)
1'
#250000
1"
18
#260000
0"
08
19
0a
0^
0[
1>
1=
1#
0-
0.
0/
1%
0&
#270000
1"
18
#280000
0"
08
09
1a
1^
1[
0>
0=
0#
1-
1.
1/
0%
1&
1:
0a
0^
0[
1X
1>
1<
1$
0-
0.
0/
10
1%
1)
0'
#290000
1"
18
#300000
0"
08
19
1g
1d
1a
1^
1[
0<
1;
1#
1+
1,
1-
1.
1/
0)
0(
1'
#310000
1"
18
#320000
0"
08
09
0g
0d
0a
0^
0[
1<
0;
0#
0+
0,
0-
0.
0/
1)
1(
0'
0:
1a
1^
1[
0X
0>
0<
0$
1-
1.
1/
00
0%
0)
1'
#330000
1"
18
#340000
0"
08
19
0a
0^
0[
1>
1=
1#
0-
0.
0/
1%
0&
#350000
1"
18
#360000
0"
08
09
1a
1^
1[
0>
0=
0#
1-
1.
1/
0%
1&
1:
0a
0^
0[
1X
1>
1<
1$
0-
0.
0/
10
1%
1)
0'
#370000
1"
18
#380000
0"
08
19
1g
1d
1a
1^
1[
0<
1;
1#
1+
1,
1-
1.
1/
0)
0(
1'
#390000
1"
18
#400000
0"
08
09
0g
0d
0a
0^
0[
1<
0;
0#
0+
0,
0-
0.
0/
1)
1(
0'
0:
1a
1^
1[
0X
0>
0<
0$
1-
1.
1/
00
0%
0)
1'
#410000
1"
18
#420000
0"
08
19
0a
0^
0[
1>
1=
1#
0-
0.
0/
1%
0&
#430000
1"
18
#440000
0"
08
09
1a
1^
1[
0>
0=
0#
1-
1.
1/
0%
1&
1:
0a
0^
0[
1X
1>
1<
1$
0-
0.
0/
10
1%
1)
0'
#450000
1"
18
#460000
0"
08
19
1g
1d
1a
1^
1[
0<
1;
1#
1+
1,
1-
1.
1/
0)
0(
1'
#470000
1"
18
#480000
0"
08
09
0g
0d
0a
0^
0[
1<
0;
0#
0+
0,
0-
0.
0/
1)
1(
0'
0:
1a
1^
1[
0X
0>
0<
0$
1-
1.
1/
00
0%
0)
1'
#490000
1"
18
#500000
0"
08
19
0a
0^
0[
1>
1=
1#
0-
0.
0/
1%
0&
#510000
1"
18
#520000
0"
08
09
1a
1^
1[
0>
0=
0#
1-
1.
1/
0%
1&
1:
0a
0^
0[
1X
1>
1<
1$
0-
0.
0/
10
1%
1)
0'
#530000
1"
18
#540000
0"
08
19
1g
1d
1a
1^
1[
0<
1;
1#
1+
1,
1-
1.
1/
0)
0(
1'
#550000
1"
18
#560000
0"
08
09
0g
0d
0a
0^
0[
1<
0;
0#
0+
0,
0-
0.
0/
1)
1(
0'
0:
1a
1^
1[
0X
0>
0<
0$
1-
1.
1/
00
0%
0)
1'
#570000
1"
18
#580000
0"
08
19
0a
0^
0[
1>
1=
1#
0-
0.
0/
1%
0&
#590000
1"
18
#600000
0"
08
09
1a
1^
1[
0>
0=
0#
1-
1.
1/
0%
1&
1:
0a
0^
0[
1X
1>
1<
1$
0-
0.
0/
10
1%
1)
0'
#610000
1"
18
#620000
0"
08
19
1g
1d
1a
1^
1[
0<
1;
1#
1+
1,
1-
1.
1/
0)
0(
1'
#630000
1"
18
#640000
0"
08
09
0g
0d
0a
0^
0[
1<
0;
0#
0+
0,
0-
0.
0/
1)
1(
0'
0:
1a
1^
1[
0X
0>
0<
0$
1-
1.
1/
00
0%
0)
1'
#650000
1"
18
#660000
0"
08
19
0a
0^
0[
1>
1=
1#
0-
0.
0/
1%
0&
#670000
1"
18
#680000
0"
08
09
1a
1^
1[
0>
0=
0#
1-
1.
1/
0%
1&
1:
0a
0^
0[
1X
1>
1<
1$
0-
0.
0/
10
1%
1)
0'
#690000
1"
18
#700000
0"
08
19
1g
1d
1a
1^
1[
0<
1;
1#
1+
1,
1-
1.
1/
0)
0(
1'
#710000
1"
18
#720000
0"
08
09
0g
0d
0a
0^
0[
1<
0;
0#
0+
0,
0-
0.
0/
1)
1(
0'
0:
1a
1^
1[
0X
0>
0<
0$
1-
1.
1/
00
0%
0)
1'
#730000
1"
18
#740000
0"
08
19
0a
0^
0[
1>
1=
1#
0-
0.
0/
1%
0&
#750000
1"
18
#760000
0"
08
09
1a
1^
1[
0>
0=
0#
1-
1.
1/
0%
1&
1:
0a
0^
0[
1X
1>
1<
1$
0-
0.
0/
10
1%
1)
0'
#770000
1"
18
#780000
0"
08
19
1g
1d
1a
1^
1[
0<
1;
1#
1+
1,
1-
1.
1/
0)
0(
1'
#790000
1"
18
#800000
0"
08
09
0g
0d
0a
0^
0[
1<
0;
0#
0+
0,
0-
0.
0/
1)
1(
0'
0:
1a
1^
1[
0X
0>
0<
0$
1-
1.
1/
00
0%
0)
1'
#810000
1"
18
#820000
0"
08
19
0a
0^
0[
1>
1=
1#
0-
0.
0/
1%
0&
#830000
1"
18
#840000
0"
08
09
1a
1^
1[
0>
0=
0#
1-
1.
1/
0%
1&
1:
0a
0^
0[
1X
1>
1<
1$
0-
0.
0/
10
1%
1)
0'
#850000
1"
18
#860000
0"
08
19
1g
1d
1a
1^
1[
0<
1;
1#
1+
1,
1-
1.
1/
0)
0(
1'
#870000
1"
18
#880000
0"
08
09
0g
0d
0a
0^
0[
1<
0;
0#
0+
0,
0-
0.
0/
1)
1(
0'
0:
1a
1^
1[
0X
0>
0<
0$
1-
1.
1/
00
0%
0)
1'
#890000
1"
18
#900000
0"
08
19
0a
0^
0[
1>
1=
1#
0-
0.
0/
1%
0&
#910000
1"
18
#920000
0"
08
09
1a
1^
1[
0>
0=
0#
1-
1.
1/
0%
1&
1:
0a
0^
0[
1X
1>
1<
1$
0-
0.
0/
10
1%
1)
0'
#930000
1"
18
#940000
0"
08
19
1g
1d
1a
1^
1[
0<
1;
1#
1+
1,
1-
1.
1/
0)
0(
1'
#950000
1"
18
#960000
0"
08
09
0g
0d
0a
0^
0[
1<
0;
0#
0+
0,
0-
0.
0/
1)
1(
0'
0:
1a
1^
1[
0X
0>
0<
0$
1-
1.
1/
00
0%
0)
1'
#970000
1"
18
#980000
0"
08
19
0a
0^
0[
1>
1=
1#
0-
0.
0/
1%
0&
#990000
1"
18
